…
## Discovering functions

No functions are exported, but just type `MTP.` and hit "Tab" to get a list of methods.

## Generating a plate

Plates are [DataFrames](https://dataframes.juliadata.org/stable/).
Plates has a `geometry` which is the number of wells.
Currently supported are 96 and 384 well plates.

You create a plate by calling `MTP.plate("Platename")`:

```{julia}
julia> MTP.plate("P1")
96×3 DataFrame
 Row │ platename  geometry  well
     │ String     Int64     String 
─────┼─────────────────────────────
   1 │ P1               96  A01
   2 │ P1               96  B01
   3 │ P1               96  C01
   4 │ P1               96  D01
   5 │ P1               96  E01
   6 │ P1               96  F01
   7 │ P1               96  G01
   8 │ P1               96  H01
   9 │ P1               96  A02
  10 │ P1               96  B02
  11 │ P1               96  C02
  ⋮  │     ⋮         ⋮        ⋮
  86 │ P1               96  F11
  87 │ P1               96  G11
  88 │ P1               96  H11
  89 │ P1               96  A12
  90 │ P1               96  B12
  91 │ P1               96  C12
  92 │ P1               96  D12
  93 │ P1               96  E12
  94 │ P1               96  F12
  95 │ P1               96  G12
  96 │ P1               96  H12
                    74 rows omitted
```

You can make multiple plates by giving a vector of plate-names, and you can specify the geometry:

```{julia}
julia> MTP.plate(["P1", "P2"], 384)
768×3 DataFrame
 Row │ platename  geometry  well   
     │ String     Int64     String 
─────┼─────────────────────────────
   1 │ P1              384  A01
   2 │ P1              384  B01
   3 │ P1              384  C01
   4 │ P1              384  D01
   5 │ P1              384  E01
   6 │ P1              384  F01
   7 │ P1              384  G01
   8 │ P1              384  H01
   9 │ P1              384  I01
  10 │ P1              384  J01
  11 │ P1              384  K01
  ⋮  │     ⋮         ⋮        ⋮
 758 │ P2              384  F24
 759 │ P2              384  G24
 760 │ P2              384  H24
 761 │ P2              384  I24
 762 │ P2              384  J24
 763 │ P2              384  K24
 764 │ P2              384  L24
 765 │ P2              384  M24
 766 │ P2              384  N24
 767 │ P2              384  O24
 768 │ P2              384  P24
                   746 rows omitted
```
…
